{
  "id": "default",
  "name": "Default",
  "editable": false,
  "layout": "horizontal",
  "steps": [
    {
      "label": {
        "en": "Fill out your submission",
        "ar": "قم بتعبئة بلاغك",
        "az": "Təqdimatınızı doldurun",
        "bg": "Изпишете Вашето сведение",
        "bs": "Popunite vašu prijavu",
        "ca": "Emplena les dades del teu enviament",
        "ca@valencia": "Emplene les dades del seu enviament",
        "cs": "Vyplňte vaše podání",
        "da": "Udfyld din indsendelse",
        "de": "Füllen Sie Ihre Einreichung aus",
        "el": "Συμπληρώστε την υποβολή σας",
        "es": "Cumplimente los datos de su entrega",
        "fa": "پر کردن گزارش خود",
        "fi": "Täytä lähetyslomake",
        "fr": "Remplissez votre dossier",
        "gl": "Enche o teu envío",
        "he": "מלא את ההגשה שלך",
        "hr_HR": "Ispunite svoju predaju",
        "hu_HU": "Töltse ki az űrlapot!",
        "id": "Isi pengiriman anda",
        "it": "Compila la tua segnalazione",
        "ja": "告発内容を記入",
        "ka": "შეავსეთ თქვენი წარდგენის",
        "ko": "제출을 작성",
        "mg": "Remplissez votre dossier",
        "nb_NO": "Fyll ut din innsendelse",
        "nl": "Invullen van de inzending",
        "pl": "Wypełnij swoje zgłoszenie",
        "pt_BR": "Preencha sua submissão",
        "pt_PT": "Preencha a sua submissão",
        "ro": "Completați informațiile trimise",
        "ru": "Заполните заявку на передачу документов",
        "sk": "Vyplňte vaše podanie",
        "sl_SI": "Izpolnite vašo naznanitev",
        "sq": "Mbushni parashtrimin tuaj",
        "sv": "Fyll i ditt tips",
        "ta": "உங்கள் சமர்ப்பிப்பு நிரப்ப",
        "th": "กรอกข้อมูลการส่งของคุณ",
        "tr": "Gönderiminizi doldurun",
        "uk": "Заповніть інформацію про ваші матеріали",
        "ur": "اپنی گزارش پر کریں",
        "vi": "Điền vào phần đệ trình của bạn",
        "zh_CN": "填写你的提交物",
        "zh_TW": "填寫你提交的內容"
      },
      "description": {
        "en": ""
      },
      "presentation_order": 0,
      "children": [
        {
          "label": {
            "en": "Short title",
            "ar": "عنوان قصير",
            "az": "Qısa ad",
            "bg": "Кратко заглавие",
            "bs": "Kratak naslov",
            "ca": "Títol curt",
            "ca@valencia": "Títol curt",
            "cs": "Krátký popis",
            "da": "Kort titel",
            "de": "Kurztitel",
            "el": "Σύντομος τίτλος",
            "es": "Título corto",
            "fa": "عنوان مختصر",
            "fi": "Vihjeen otsikko",
            "fr": "Titre abrégé",
            "gl": "Título curto",
            "he": "כותרת קצרה",
            "hr_HR": "Kratki naslov",
            "hu_HU": "Rövid cím",
            "id": "Judul pendek",
            "it": "Breve titolo",
            "ja": "短いタイトル",
            "ka": "მოკლე სათაური",
            "ko": "짧은 제목",
            "mg": "Titre abrégé",
            "nb_NO": "Kort tittel",
            "nl": "Korte titel",
            "pl": "Krótki tytuł",
            "pt_BR": "Título curto",
            "pt_PT": "Título curto",
            "ro": "Titlul scurt",
            "ru": "Краткое название",
            "sk": "Krátky popis",
            "sl_SI": "Skrajšan naslov",
            "sq": "Titulli i shkurtër",
            "sv": "Kort titel",
            "ta": "குறுகிய தலைப்பு",
            "th": "ชื่อสั้น",
            "tr": "Kısa başlık",
            "uk": "Короткий заголовок",
            "ur": "مختصرعنوان",
            "vi": "tiêu đề ngắn",
            "zh_CN": "短标题",
            "zh_TW": "短標題"
          },
          "type": "inputbox",
          "preview": true,
          "description": {
            "en": "Describe your submission in a few words.",
            "ar": "الرجاء كتابة نبذة عن البلاغ.",
            "az": "Təqdimatınızı bir neçə sözlə təsvir edin.",
            "bg": "Опишете подадения сигнал с няколко думи.",
            "bs": "Describe your submission in a few words.",
            "ca": "Descriu el teu enviament en poques paraules.",
            "ca@valencia": "Descriga el seu enviament en poques paraules.",
            "cs": "Popište své podání několika slovy.",
            "da": "Beskriv i få ord din indsendelse.",
            "de": "Beschreiben Sie Ihre Einreichung in ein paar Worten.",
            "el": "Περιγράψτε την υποβολή σας με λίγα λόγια.",
            "es": "Describa su entrega en unas pocas palabras.",
            "fa": "گزارش خود را در چند کلمه توضیح دهید.",
            "fi": "Kuvaile vihjettäsi muutamalla sanalla.",
            "fr": "Décrivez votre envoi en quelques mots.",
            "gl": "Describe a túa presentación en poucas palabras.",
            "he": "תאר את ההגשה שלך עם כמה מילים",
            "hr_HR": "Opišite svoju predaju u par riječi",
            "hu_HU": "Feltöltött anyag rövid leírása.",
            "id": "Deskripsikan pengiriman anda dalam beberapa kata.",
            "it": "Descrivi la tua segnalazione con poche parole.",
            "ja": "短く提出を説明してください",
            "ka": "აღწერეთ თქვენი წარდგენის რამდენიმე სიტყვა.",
            "ko": "Describe your submission in a few words.",
            "mg": "Décrivez votre envoi en quelques mots.",
            "nb_NO": "Kort beskrivelse av din innsendelse.",
            "nl": "Korte beschrijving van uw inzending.",
            "pl": "Describe your submission in a few words.",
            "pt_BR": "Descrever o seu envio em algumas palavras.",
            "pt_PT": "Descreva em algumas palavras a sua submissão.",
            "ro": "Descrie livrarea in cateva cuvinte.",
            "ru": "Опишите ваш материал в нескольких словах.",
            "sk": "Opíšte svoje podanie niekoľkými slovami.",
            "sl_SI": "Describe your submission in a few words.",
            "sq": ".Përshkruajeni me pak fjalë parashtrimin tuaj",
            "sv": "Describe your submission in a few words.",
            "ta": "ஒரு சில வார்த்தைகளில் உங்கள் சமர்ப்பிப்பு விவரிக்கவும்.",
            "th": "Describe your submission in a few words.",
            "tr": "Gönderiminizi birkaç kelime ile tanımlayın",
            "uk": "Опишіть кількома словами надані вами матеріали.",
            "ur": "Describe your submission in a few words.",
            "vi": "Mô tả trình của bạn với một vài từ",
            "zh_CN": "Describe your submission in a few words.",
            "zh_TW": "請簡述所提交的資料"
          },
          "hint": {
            "en": ""
          },
          "placeholder": {
            "en": ""
          },
          "multi_entry": false,
          "multi_entry_hint": {
            "en": ""
          },
          "encrypt": true,
          "required": true,
          "attrs": {
            "min_len": {
              "type": "int",
              "value": "-1"
            },
            "max_len": {
              "type": "int",
              "value": "-1"
            },
            "input_validation": {
              "type": "unicode",
              "value": "none"
            },
            "regexp": {
              "type": "unicode",
              "value": ""
            }
          },
          "options": [],
          "children": [],
          "y": 1,
          "x": 0
        },
        {
          "label": {
            "en": "Full description",
            "ar": "وصف كامل",
            "az": "Tam açıqlama",
            "bg": "Пълно описание",
            "bs": "Puni opis",
            "ca": "Descripció completa",
            "ca@valencia": "Descripció completa",
            "cs": "Úplný popis",
            "da": "Fuld beskrivelse",
            "de": "Ausführliche Beschreibung",
            "el": "Πλήρης περιγραφή",
            "es": "Descripción completa",
            "fa": "توضیح کامل",
            "fi": "Vihjeen tarkempi kuvaus",
            "fr": "Description complète",
            "gl": "Descrición completa",
            "he": "תיאור מלא",
            "hr_HR": "Puni opis",
            "hu_HU": "Hosszú leírás",
            "id": "Deskripsi lengkap",
            "it": "Descrizione dettagliata",
            "ja": "詳細な説明",
            "ka": "სრული აღწერა",
            "ko": "전체 설명",
            "mg": "Description complète",
            "nb_NO": "Full beskrivelse",
            "nl": "Volledige omschrijving",
            "pl": "Pełen opis",
            "pt_BR": "Descrição completa",
            "pt_PT": "Descrição completa",
            "ro": "descriere completa",
            "ru": "Полное описание",
            "sk": "Úplný popis",
            "sl_SI": "Poln opis",
            "sq": "Përshkrim i plotë",
            "sv": "Hela beskrivningen",
            "ta": "முழு விவரம்",
            "th": "คำอธิบายแบบเต็ม",
            "tr": "Tam açıklama",
            "uk": "Повний опис",
            "ur": "مکمل وضاحت",
            "vi": "Mô tả đầy đủ",
            "zh_CN": "完整描述",
            "zh_TW": "完整描述"
          },
          "type": "textarea",
          "preview": false,
          "description": {
            "en": "Describe your submission in detail.",
            "ar": "الرجاء وصف البلاغ بالتفصيل.",
            "az": "Təqdimatınızı təfərrüatı ilə təsvir edin.",
            "bg": "Опишете подадения сигнал в детайли.",
            "bs": "Describe your submission in detail.",
            "ca": "Descriu els detalls del teu enviament.",
            "ca@valencia": "Descriga els detalls del seu enviament.",
            "cs": "Popište své podání detailně.",
            "da": "Beskriv i detaljer din indsendelse.",
            "de": "Beschreiben Sie Ihre Einreichung im Detail.",
            "el": "Περιγράψτε λεπτομερώς την υποβολή σας.",
            "es": "Describa su entrega en detalle.",
            "fa": "گزارش خود را به صورت کامل تشریح کنید.",
            "fi": "Kirjoita vihjeeseen liittyvät yksityiskohdat.",
            "fr": "Décrivez votre envoi en détail.",
            "gl": "Describe a túa presentación en detalle.",
            "he": "Describe your submission in detail.",
            "hr_HR": "Opišite svoju predaju detaljno",
            "hu_HU": "Feltöltött anyag részletes leírása.",
            "id": "Deskripsikan pengiriman anda secara rinci.",
            "it": "Descrivi la tua segnalazione in dettaglio.",
            "ja": "詳細に提出を説明してください",
            "ka": "აღწერეთ თქვენი წარდგენის რამდენიმე სიტყვა.",
            "ko": "Describe your submission in detail.",
            "mg": "Décrivez votre envoi en détail.",
            "nb_NO": "Beskriv din innsendelse i detalj.",
            "nl": "Uw uitgebreide inzending.",
            "pl": "Describe your submission in detail.",
            "pt_BR": "Descrever o seu envio em detalhes.",
            "pt_PT": "Descreva a sua submissão detalhadamente.",
            "ro": "Descrie-ti livrarea in detalii.",
            "ru": "Детально опишите ваш материал.",
            "sk": "Opíšte svoje podanie podrobne.",
            "sl_SI": "Describe your submission in detail.",
            "sq": ".Përshkruajeni me pak fjalë parashtrimin tuaj.",
            "sv": "Describe your submission in detail.",
            "ta": "உங்கள் சமர்ப்பிப்பு விரிவாக விவரிக்கவும்.",
            "th": "Describe your submission in detail.",
            "tr": "Gönderiminizi detaylı bir şekilde tanımlayınız",
            "uk": "Опишіть надані вами матеріали детальніше.",
            "ur": "Describe your submission in detail.",
            "vi": "Describe your submission in detail.",
            "zh_CN": "Describe your submission in detail.",
            "zh_TW": "請詳述所提交的資料"
          },
          "hint": {
            "en": ""
          },
          "placeholder": {
            "en": ""
          },
          "multi_entry": false,
          "multi_entry_hint": {
            "en": ""
          },
          "encrypt": true,
          "required": true,
          "attrs": {
            "min_len": {
              "type": "int",
              "value": "-1"
            },
            "max_len": {
              "type": "int",
              "value": "-1"
            }
          },
          "options": [],
          "children": [],
          "y": 2,
          "x": 0
        },
        {
          "label": {
            "en": "Attachments",
            "ar": "مرفقات",
            "az": "Qoşmalar",
            "bg": "Прикачени файлове",
            "bs": "Prilozi",
            "ca": "Adjunts",
            "ca@valencia": "Adjunts",
            "cs": "Přílohy",
            "da": "Vedhæftelser",
            "de": "Anhänge",
            "el": "Συνημμένα",
            "es": "Adjuntos",
            "fa": "ضمیمه‌ها",
            "fi": "Liitteet",
            "fr": "Fichiers joints",
            "gl": "Anexos",
            "he": "צרופות",
            "hr_HR": "Privitci",
            "hu_HU": "Mellékletek",
            "id": "Lampiran",
            "it": "Allegati",
            "ja": "添付",
            "ka": "attachments",
            "ko": "첨부 파일",
            "mg": "Ireo rakitra ampiarahina",
            "nb_NO": "Vedlegg",
            "nl": "Bijlagen",
            "pl": "Załączniki",
            "pt_BR": "Anexos",
            "pt_PT": "Anexos",
            "ro": "atașamente",
            "ru": "Приложения",
            "sk": "Prílohy",
            "sl_SI": "Priloge",
            "sq": "attachments",
            "sv": "Bilagor",
            "ta": "இணைப்புகள்",
            "th": "สิ่งที่แนบมา",
            "tr": "Ekler",
            "uk": "Додатки",
            "ur": "آئٹم کے ساتھ منسلک",
            "vi": "Các tập tin đính kèm",
            "zh_CN": "附件",
            "zh_TW": "附件"
          },
          "type": "fileupload",
          "preview": false,
          "description": {
            "en": "Attach files relevant to the submission.",
            "ar": "إرفاق ملفات ذات صلة بالبلاغ.",
            "az": "Təqdimat ilə əlaqəli faylları əlavə edin",
            "bg": "Прикачете файлове към сигнала.",
            "bs": "Dodajte podatke relevantne za prijavu.",
            "ca": "Adjunta arxius rellevants per a l'enviament.",
            "ca@valencia": "Adjunta arxius rellevants per a l'enviament.",
            "cs": "Připojení souborů relevantních k Vašemu podání.",
            "da": "Vedhæft de filer der vedrører indsendelsen.",
            "de": "Hängen Sie Dateien an, die für die Einreichung relevant sind.",
            "el": "Επισυνάψτε αρχεία σχετικά με την υποβολή.",
            "es": "Adjunte ficheros relevantes para el envío.",
            "fa": "ضمیمه کردن فایل های مرتبط با گزارش",
            "fi": "Liitä mukaan vihjeeseen liittyviä tiedostoja",
            "fr": "Joignez les fichiers pertinents à votre envoi.",
            "gl": "Adxuntar ficheiros relevantes para a presentación.",
            "he": "צרף קבצים רלוונטיים להגשה",
            "hr_HR": "Dodaj datoteke relevantne za prijavu",
            "hu_HU": "A beküldéshez kapcsolódó fájlok hozzáadása.",
            "id": "Lampirkan berkas yang bersangkutan dengan pengiriman.",
            "it": "Allega file rilevanti per la segnalazione.",
            "ja": "提出に関連したファイルを添付してください",
            "ka": "ფაილების მიმაგრება შესაბამისი წარდგინების.",
            "ko": "Attach files relevant to the submission.",
            "mg": "Alefaso eto ireo porofo mivaingana anananao.",
            "nb_NO": "Legg ved relevante filer til innsendelsen.",
            "nl": "Voeg bestanden te welke relevant zijn voor de inzending.",
            "pl": "Attach files relevant to the submission.",
            "pt_BR": "Anexar arquivos relevantes para a submissão.",
            "pt_PT": "Anexe os ficheiros relevantes para a submissão.",
            "ro": "Atașa fișiere relevante pentru depunerea.",
            "ru": "Прикладывайте файлы, относящиеся к делу.",
            "sk": "Priložte súbory relevantné pre Vaše podanie.",
            "sl_SI": "Attach files relevant to the submission.",
            "sq": "Shtoni skedarët e rëndësishëm për parashtrimin.",
            "sv": "Attach files relevant to the submission.",
            "ta": "சமர்ப்பிப்புக்கு தொடர்புடைய கோப்புகளை இணைக்கவும்.",
            "th": "แนบไฟล์ที่เกี่ยวข้องกับการส่ง",
            "tr": "Gönderiminizle ilgili dosyaları ekleyin",
            "uk": "Прикріпити файли, пов'язані з матеріалом.",
            "ur": "منسلک فائلیں داخل کردہ گذارشات سے متعلق ہیں",
            "vi": "Đính kèm tập tin có liên quan đến việc nộp.",
            "zh_CN": "Attach files relevant to the submission.",
            "zh_TW": "此提交相關的附件資料"
          },
          "hint": {
            "en": ""
          },
          "placeholder": {
            "en": ""
          },
          "multi_entry": true,
          "multi_entry_hint": {
            "en": ""
          },
          "encrypt": true,
          "required": false,
          "attrs": {},
          "options": [],
          "children": [],
          "y": 3,
          "x": 0
        }
      ]
    }
  ]
}